^C:\USERS\ROBIN\DOCUMENTS\PROGRAMMING2\_TEMPORARY\X86\DEBUG\MAIN.OBJ
C:\USERS\ROBIN\DOCUMENTS\PROGRAMMING2\_BINARY\SFML-APP32D.ILK
C:\USERS\ROBIN\DOCUMENTS\PROGRAMMING2\_BINARY\SFML-APP32D.EXE
C:\USERS\ROBIN\DOCUMENTS\PROGRAMMING2\_BINARY\SFML-APP32D.PDB
